certifi==2024.8.30
charset-normalizer==3.4.0
coverage==3.7.1
docker==2.7.0
docker-py==1.7.2
docker-pycreds==0.4.0
hurry.filesize==0.9
idna==3.10
mock==1.0.1
psutil==4.3.0
PyMySQL==0.7.7
requests==2.32.3
six==1.10.0
tornado==4.4.1
tornado_systemd==1.0.1
urllib3==2.2.3
websocket_client==0.37.0
